#The detector is APD 2
#Format 2d array of image
#x-axis x piezo ( μm ), y-axis y piezo ( μm )
#center [50.0, 50.0], dims [20.0, 20.0], accuracy [0.2, 0.2], delay 10.0
0.1,0.3,0.1,0.1,0.5,0.1,0.2,0.4,0.0,0.2,0.1,0.3,0.2,0.1,0.3,0.0,0.3,0.0,0.0,0.0,0.1,0.2,0.1,0.5,0.2,0.0,0.1,0.4,0.0,0.0,0.2,0.0,0.2,0.1,0.2,0.3,0.2,0.1,0.2,0.2,0.2,0.3,0.2,0.2,0.4,0.1,0.2,0.1,0.2,0.3,0.1,0.3,0.0,0.0,0.2,0.2,0.4,0.2,0.0,0.2,0.2,0.6,0.2,0.1,0.1,0.1,0.2,0.8,0.1,0.2,0.3,0.1,0.1,0.2,0.0,0.2,0.1,0.1,0.2,0.2,0.3,0.0,0.3,0.0,0.5,0.1,0.4,0.5,0.2,0.2,0.3,0.0,0.2,0.2,0.3,0.1,0.2,0.1,0.1,0.2
0.4,0.2,0.2,0.2,0.1,0.2,0.2,0.3,0.0,0.6,0.1,0.1,0.0,0.0,0.1,0.1,0.0,0.0,0.2,0.5,0.3,0.0,0.2,0.3,0.3,0.5,0.0,0.2,0.1,0.1,0.2,0.0,0.2,0.1,0.1,0.3,0.4,0.4,0.4,0.2,0.4,0.3,0.1,0.3,0.1,0.2,0.1,0.1,0.2,0.3,0.0,0.2,0.4,0.0,0.3,0.6,0.0,0.2,0.3,0.2,0.3,0.4,0.4,0.2,0.3,0.0,0.1,0.2,0.4,0.2,0.0,0.2,0.0,0.0,0.0,0.5,0.1,0.2,0.0,0.3,0.4,0.3,0.2,0.0,0.2,0.3,0.1,0.1,0.0,0.1,0.2,0.2,0.0,0.3,0.3,0.1,0.1,0.1,0.2,0.0
0.1,0.0,0.0,0.2,0.4,0.3,0.0,0.4,0.2,0.3,0.4,0.2,0.0,0.3,0.2,0.3,0.4,0.2,0.3,0.0,0.2,0.5,0.3,0.2,0.1,0.3,0.0,0.0,0.1,0.0,0.4,0.1,0.0,0.1,0.0,0.4,0.0,0.3,0.0,0.2,0.1,0.3,0.4,0.3,0.1,0.1,0.0,0.0,0.2,0.2,0.2,0.2,0.0,0.0,0.1,0.0,0.1,0.2,0.2,0.0,0.6,0.1,0.1,0.4,0.1,0.3,0.3,0.2,0.3,0.1,0.0,0.2,0.2,0.0,0.2,0.2,0.1,0.1,0.0,0.1,0.1,0.1,0.3,0.1,0.0,0.1,0.3,0.3,0.2,0.0,0.1,0.1,0.4,0.0,0.1,0.2,0.4,0.1,0.4,0.3
0.1,0.2,0.3,0.3,0.2,0.0,0.1,0.3,0.1,0.2,0.2,0.0,0.1,0.0,0.4,0.2,0.0,0.0,0.4,0.2,0.3,0.2,0.3,0.3,0.2,0.4,0.4,0.4,0.1,0.2,0.4,0.3,0.2,0.0,0.3,0.3,0.3,0.1,0.4,0.0,0.0,0.4,0.3,0.1,0.2,0.2,0.4,0.1,0.1,0.0,0.1,0.1,0.0,0.1,0.3,0.1,0.1,0.1,0.4,0.2,0.4,0.7,0.1,0.1,0.0,0.4,0.1,0.1,0.2,0.1,0.0,0.3,0.0,0.3,1.0,0.0,0.3,0.1,0.2,0.1,0.3,0.1,0.2,0.5,0.1,0.2,0.1,0.0,0.1,0.1,0.3,0.2,0.2,0.2,0.1,0.0,0.1,0.4,0.3,0.0
0.1,0.2,0.3,0.0,0.1,0.1,0.1,0.1,0.5,0.1,0.2,0.2,0.0,0.1,0.2,0.2,0.4,0.1,0.6,0.0,0.2,0.1,0.2,0.0,0.1,0.5,0.2,0.4,0.3,0.1,0.3,0.3,0.5,0.0,0.2,0.1,0.1,0.0,0.4,0.1,0.3,0.2,0.4,0.2,0.0,0.0,0.6,0.0,0.1,0.1,0.4,0.0,0.5,0.0,0.3,0.0,0.6,0.3,0.1,0.1,0.2,0.3,0.1,0.1,0.3,0.3,0.3,0.3,0.1,0.1,0.3,0.6,0.2,0.0,0.0,0.0,0.3,0.1,0.0,0.2,0.0,0.3,0.3,0.1,0.2,0.0,0.0,0.3,0.0,0.4,0.1,0.3,0.0,0.3,0.2,0.5,0.1,0.1,0.1,0.5
0.0,0.3,0.2,0.1,0.5,0.6,0.2,0.2,0.1,0.1,0.3,0.4,0.2,0.2,0.3,0.1,0.2,0.0,0.3,0.0,0.2,0.0,0.1,0.0,0.2,0.2,0.1,0.1,0.1,0.1,0.3,0.2,0.2,0.1,0.1,0.1,0.4,0.3,0.3,0.3,0.1,0.3,0.1,0.2,0.2,0.3,0.2,0.2,0.4,0.0,0.1,0.3,0.1,0.2,0.4,0.4,0.0,0.1,0.2,0.0,0.3,0.1,0.1,0.2,0.3,0.1,0.2,0.1,0.1,0.2,0.2,0.0,0.2,0.3,0.0,0.1,0.3,0.2,0.2,0.1,0.2,0.1,0.1,0.1,0.5,0.3,0.1,0.3,0.0,0.0,0.2,0.2,0.2,0.1,0.1,0.1,0.1,0.2,0.0,0.0
0.2,0.3,0.3,0.0,0.5,0.2,0.4,0.2,0.3,0.2,0.2,0.0,0.1,0.1,0.2,0.3,0.2,0.4,0.2,0.2,0.2,0.0,0.5,0.1,0.2,0.2,0.3,0.1,0.2,0.4,0.3,0.0,0.1,0.0,0.3,0.0,0.0,0.2,0.0,0.1,0.2,0.1,0.2,0.2,0.0,0.1,0.2,0.0,0.1,0.1,0.2,0.1,0.1,0.6,0.2,0.1,0.2,0.2,0.2,0.2,0.0,0.2,0.2,0.4,0.3,0.3,0.2,0.1,0.1,0.2,0.0,0.2,0.2,0.1,0.2,0.2,0.0,0.1,0.5,0.2,0.0,0.2,0.0,0.1,0.0,0.1,0.3,0.5,0.2,0.3,0.1,0.1,0.0,0.0,0.3,0.3,0.0,0.2,0.1,0.4
0.2,0.2,0.2,0.1,0.3,0.1,0.1,0.1,0.1,0.2,0.3,0.2,0.2,0.2,0.1,0.1,0.2,0.2,0.2,0.1,0.2,0.4,0.6,0.1,0.0,0.3,0.1,0.1,0.1,0.2,0.3,0.3,0.3,0.1,0.4,0.1,0.1,0.3,0.2,0.2,0.3,0.1,0.0,0.2,0.2,0.0,0.2,0.3,0.1,0.2,0.1,0.0,0.0,0.0,0.4,0.3,0.0,0.5,0.2,0.1,0.3,0.0,0.3,0.1,0.1,0.2,0.2,0.3,0.1,0.1,0.1,0.1,0.2,0.5,0.2,0.3,0.3,0.1,0.2,0.0,0.2,0.0,0.1,0.1,0.1,0.4,0.2,0.1,0.8,0.2,0.1,0.1,0.1,0.1,0.3,0.5,0.0,0.1,0.3,0.0
0.1,0.3,0.3,0.5,0.2,0.1,0.3,0.1,0.1,0.1,0.2,0.1,0.2,0.2,0.1,0.1,0.2,0.1,0.3,0.1,0.1,0.1,0.4,0.4,0.2,0.5,0.1,0.2,0.3,0.4,0.1,0.0,0.3,0.1,0.2,0.2,0.3,0.5,0.3,0.4,0.0,0.2,0.3,0.1,0.3,0.1,0.5,0.0,0.1,0.2,0.3,0.2,0.2,0.4,0.0,0.2,0.2,0.3,0.2,0.0,0.2,0.1,0.1,0.2,0.0,0.1,0.0,0.4,0.3,0.3,0.1,0.3,0.1,0.1,0.1,0.2,0.1,0.0,0.1,0.4,0.3,0.0,0.2,0.1,0.2,0.1,0.0,0.4,0.1,0.0,0.3,0.3,0.0,0.2,0.3,0.4,0.3,0.1,0.4,0.1
0.0,0.3,0.2,0.0,0.1,0.3,0.4,0.1,0.2,0.2,0.2,0.3,0.1,0.2,0.1,0.1,0.3,0.5,0.3,0.4,0.2,0.2,0.7,0.0,0.0,0.2,0.2,0.1,0.0,0.1,0.3,0.3,0.2,0.1,0.0,0.2,0.2,0.3,0.1,0.1,0.1,0.0,0.2,0.6,0.1,0.0,0.4,0.0,0.3,0.3,0.3,0.0,0.2,0.1,0.3,0.6,0.1,0.3,0.1,0.1,0.1,0.3,0.6,0.3,0.1,0.3,0.0,0.1,0.1,0.1,0.1,0.0,0.1,0.3,0.2,0.2,0.3,0.1,0.3,0.2,0.1,0.1,0.4,0.0,0.3,0.2,0.1,0.1,0.0,0.2,0.3,0.3,0.3,0.2,0.2,0.0,0.2,0.1,0.2,0.1
0.3,0.1,0.3,0.1,0.1,0.1,0.1,0.1,0.2,0.3,0.0,0.2,0.5,0.4,0.1,0.3,0.0,0.3,0.2,0.2,0.1,0.1,0.5,0.3,0.0,0.1,0.0,0.3,0.2,0.1,0.2,0.2,0.3,0.4,0.1,0.1,0.3,0.3,0.2,0.2,1.7,0.6,0.4,0.3,0.1,0.1,0.0,0.0,0.1,0.1,0.3,0.1,0.4,0.0,0.3,0.4,0.1,0.1,0.5,0.3,0.1,0.1,0.1,0.2,0.0,0.3,0.2,0.2,0.1,0.0,0.1,0.1,0.1,0.3,0.3,0.0,0.2,0.1,0.2,0.2,0.1,0.4,0.3,0.1,0.3,0.1,0.0,0.4,0.1,0.0,0.4,0.1,0.1,0.3,0.0,0.5,0.2,0.3,0.1,0.1
0.1,0.2,0.0,0.1,0.4,0.1,0.1,0.4,0.0,0.1,0.4,0.1,0.4,0.1,0.0,0.3,0.2,0.1,0.1,0.1,0.7,0.2,0.1,0.2,0.3,0.1,0.2,0.1,0.3,0.1,0.4,0.3,0.0,0.3,0.2,0.1,0.2,0.1,0.2,0.3,0.7,1.4,0.2,0.2,0.1,0.4,0.2,0.2,0.0,0.3,0.2,0.3,0.1,0.1,0.4,0.1,0.2,0.0,0.0,0.3,0.1,0.1,0.3,0.2,0.4,0.0,0.2,0.5,0.4,0.5,0.2,0.2,0.4,0.5,0.3,0.2,0.2,0.2,0.5,0.4,0.1,0.1,0.1,0.0,0.2,0.2,0.1,0.1,0.1,0.2,0.3,0.0,0.1,0.1,0.3,0.2,0.0,0.4,0.2,0.0
0.2,0.1,0.2,0.1,0.2,0.2,0.1,0.5,0.0,0.4,0.1,0.2,0.0,0.1,0.2,0.2,0.3,0.1,0.2,0.5,0.4,0.4,0.2,0.0,0.2,0.0,0.3,0.1,0.4,0.1,0.0,0.3,0.3,0.0,0.2,0.1,0.1,0.0,0.2,0.3,0.0,0.1,0.1,0.2,0.2,0.0,0.2,0.1,0.0,0.2,0.2,0.2,0.2,0.5,0.6,0.5,0.3,0.0,0.1,0.0,0.1,0.3,0.2,0.2,0.3,0.1,0.2,0.6,0.2,0.2,0.0,0.2,0.0,0.0,0.3,0.1,0.1,0.0,0.3,0.2,0.1,0.1,0.2,0.1,0.1,0.0,0.3,0.2,0.2,0.1,0.0,0.2,0.1,0.6,0.1,0.2,0.5,0.0,0.1,0.0
0.4,0.1,0.4,0.3,0.4,0.1,0.1,0.0,0.0,0.2,0.0,0.1,0.1,0.1,0.3,0.0,0.3,0.4,0.1,0.2,0.0,0.1,0.0,0.0,0.1,0.3,0.1,0.0,0.0,0.2,0.2,0.3,0.4,0.1,0.2,0.1,0.3,0.0,0.2,0.1,0.6,0.5,0.2,0.3,0.4,0.2,0.2,0.2,0.3,0.3,0.2,0.3,0.3,0.1,0.2,0.2,0.5,0.0,0.4,0.2,0.0,0.1,0.2,0.3,0.2,0.5,0.4,0.1,0.2,0.0,0.3,0.0,0.1,0.1,0.1,0.4,0.3,0.3,0.2,0.1,0.2,0.2,0.3,0.2,0.2,0.2,0.1,0.3,0.2,0.0,0.1,0.3,0.1,0.2,0.0,0.2,0.3,0.4,0.2,0.3
0.2,0.4,0.0,0.3,0.0,0.1,0.1,0.3,0.4,0.2,0.0,0.2,0.5,0.0,0.4,0.2,0.1,0.1,0.3,0.3,0.2,0.2,0.1,0.2,0.5,0.0,0.4,0.1,0.4,0.0,0.3,0.3,0.0,0.1,0.3,0.0,0.2,0.1,0.3,0.1,0.0,0.0,0.1,0.2,0.2,0.1,0.2,0.1,0.1,0.5,0.2,0.3,0.3,0.4,0.2,0.1,0.1,0.2,0.2,0.2,0.3,0.3,0.4,0.3,0.1,0.4,0.1,0.0,0.1,0.0,0.0,0.9,0.4,0.1,0.1,0.3,0.2,0.1,0.2,0.3,0.2,0.3,0.0,0.2,0.0,0.3,0.1,0.4,0.2,0.0,0.1,0.0,0.3,0.0,0.1,0.3,0.2,0.3,0.0,0.1
0.2,0.1,0.2,0.5,0.1,0.2,0.3,0.1,0.1,0.4,0.2,0.3,0.4,0.1,0.2,0.0,0.1,0.3,0.0,0.1,0.1,0.2,0.3,0.1,0.1,0.1,0.2,0.4,0.4,0.2,0.3,0.3,0.1,0.1,0.2,0.3,0.2,0.4,0.2,0.3,0.1,0.3,0.2,0.4,0.4,0.0,0.2,0.3,0.3,0.2,0.0,0.0,0.3,0.1,0.5,0.1,0.3,0.1,0.1,0.2,0.4,0.2,0.1,0.6,0.1,0.3,0.0,0.3,0.4,0.3,0.0,0.2,0.1,0.3,0.2,0.0,0.3,0.2,0.2,0.3,0.3,0.1,0.1,0.3,0.1,0.0,0.2,0.3,0.0,0.2,0.3,0.0,0.0,0.0,0.2,0.2,0.3,0.0,0.3,0.1
0.7,0.4,0.3,0.4,0.1,0.4,0.3,0.2,0.0,0.0,0.0,0.2,0.1,0.1,0.1,0.0,0.3,0.1,0.5,0.1,0.3,0.2,0.0,0.1,0.3,0.2,0.0,0.1,0.1,0.3,0.3,0.3,0.1,0.3,0.1,0.3,0.1,0.3,0.2,0.1,0.3,0.2,0.1,0.3,0.4,0.1,0.1,0.3,0.2,0.5,0.3,0.3,0.2,0.1,0.2,0.1,0.2,0.6,0.3,0.2,0.2,0.3,0.2,0.1,0.4,0.2,0.3,0.3,0.0,0.4,0.0,0.1,0.3,0.1,0.1,0.4,0.1,0.1,0.5,0.4,0.1,0.5,0.3,0.0,0.0,0.1,0.1,0.3,0.2,0.2,0.2,0.3,0.2,0.1,0.5,0.0,0.4,0.2,0.5,0.0
0.1,0.0,0.2,0.1,0.5,0.2,0.1,0.2,0.2,0.2,0.0,0.2,0.1,0.1,0.1,0.2,0.2,0.1,0.2,0.2,0.5,0.2,0.0,0.1,0.2,0.2,0.3,0.4,0.2,0.2,0.2,0.0,0.4,0.1,0.2,0.2,0.1,0.2,0.1,0.1,0.1,0.2,0.4,0.3,0.4,0.5,0.2,0.0,0.5,0.3,0.0,0.0,0.2,0.3,0.2,0.1,0.2,0.3,0.1,0.5,0.6,0.4,0.2,0.0,0.3,0.2,0.2,0.2,0.3,0.1,0.1,0.0,0.2,0.3,0.6,0.3,0.5,0.3,0.2,0.3,0.3,0.3,0.4,0.2,0.0,0.2,0.2,0.2,0.1,0.5,0.2,0.2,0.2,0.2,0.4,0.4,0.3,0.2,0.0,0.0
0.0,0.6,0.0,0.3,0.2,0.3,0.2,0.2,0.1,0.5,0.1,0.1,0.1,0.0,0.2,0.2,0.1,0.0,0.1,0.0,0.3,0.1,0.0,0.3,0.2,0.1,0.1,0.1,0.2,0.2,0.2,0.2,0.1,0.2,0.2,0.2,0.5,0.0,0.3,0.3,0.4,0.0,0.1,0.1,0.2,0.3,0.0,0.0,0.2,0.2,0.3,0.1,0.1,0.4,0.0,0.4,0.1,0.2,0.0,0.0,0.1,0.1,0.1,0.5,0.0,0.4,0.2,0.1,0.1,0.1,0.2,0.2,0.3,0.2,0.2,0.1,0.3,0.1,0.1,0.2,0.2,0.2,0.3,0.0,0.0,0.2,0.1,0.2,0.2,0.1,0.1,0.2,0.2,0.2,0.2,0.1,0.1,0.2,0.1,0.2
0.1,0.1,0.0,0.2,0.5,0.2,0.1,0.3,0.1,0.2,0.4,0.1,0.2,0.2,0.1,0.0,0.2,0.2,0.5,0.0,0.5,0.1,0.1,0.0,0.1,0.1,0.3,0.0,0.2,0.1,0.1,0.2,0.2,0.1,0.0,0.2,0.1,0.2,0.6,0.0,0.2,0.0,0.1,0.3,0.0,0.4,0.1,0.2,0.0,0.4,0.2,0.2,0.0,0.2,0.2,0.3,0.5,0.3,0.3,0.0,0.5,0.3,0.2,0.2,0.3,0.0,0.1,0.2,0.2,0.2,0.1,0.0,0.0,0.1,0.4,0.2,0.1,0.2,0.0,0.3,0.1,0.4,0.2,0.1,0.1,0.2,0.4,0.0,0.2,0.2,0.3,0.1,0.4,0.2,0.2,0.5,0.3,0.6,0.3,0.1
0.2,0.0,0.2,0.1,0.2,0.2,0.1,0.3,0.2,0.2,0.2,0.1,0.1,0.3,0.3,0.1,0.1,0.1,0.3,0.3,0.2,0.1,0.0,0.1,0.2,0.1,0.1,0.0,0.3,0.0,0.2,0.4,0.1,0.3,0.5,0.3,0.3,0.1,0.2,0.0,0.3,0.0,0.0,0.1,0.2,0.3,0.5,0.4,0.0,0.1,0.1,0.3,0.2,0.0,0.2,0.0,0.3,0.3,0.1,0.2,0.2,0.4,0.2,0.3,0.3,0.0,0.1,0.2,0.2,0.1,0.3,0.0,0.0,0.0,0.3,0.2,0.1,0.2,0.1,0.3,0.1,0.0,0.3,0.2,0.3,0.0,0.1,0.3,0.3,0.1,0.1,0.7,0.3,0.2,0.0,0.2,0.3,0.3,0.2,0.0
0.1,0.2,0.2,0.1,0.2,0.3,0.2,0.0,0.1,0.4,0.2,0.0,0.2,0.1,0.1,0.1,0.1,0.1,0.2,0.2,0.2,0.2,0.4,0.3,0.4,0.2,0.2,0.0,0.0,0.2,0.3,0.3,0.3,0.1,0.2,0.6,0.1,0.0,0.2,0.4,0.1,0.3,0.0,0.3,0.3,0.1,0.2,0.2,0.1,0.6,0.0,0.2,0.2,0.4,0.5,0.0,0.1,0.0,0.6,0.0,0.3,0.1,0.2,0.0,0.4,0.0,0.2,0.1,0.0,0.5,0.2,0.0,0.0,0.1,0.0,0.2,0.2,0.4,0.2,0.1,0.3,0.2,0.3,0.3,0.5,0.5,0.1,0.0,0.1,0.2,0.5,0.1,0.3,0.3,0.0,0.3,0.1,0.1,0.1,0.3
0.3,0.1,0.1,0.3,0.1,0.0,0.4,0.2,0.2,0.1,0.4,0.2,0.6,0.1,0.1,0.1,0.1,0.5,0.2,0.2,0.5,0.2,0.1,0.4,0.2,0.0,0.3,0.4,0.2,0.2,0.1,0.1,0.1,0.5,0.1,0.1,0.1,0.2,0.5,0.1,0.0,0.1,0.2,0.3,0.1,0.3,0.0,0.1,0.6,0.2,0.5,0.1,0.4,0.2,0.2,0.1,0.1,0.1,0.1,0.3,0.1,0.1,0.3,0.2,0.2,0.3,0.3,0.0,0.1,0.1,0.1,0.2,0.0,0.0,0.0,0.2,0.1,0.1,0.2,0.0,0.2,0.1,0.4,0.1,0.0,0.2,0.1,0.1,0.2,0.0,0.1,0.2,0.1,0.2,0.2,0.2,0.3,0.1,0.0,0.4
0.3,0.1,0.5,0.3,0.2,0.3,0.0,0.3,0.1,0.1,0.2,0.2,0.1,0.0,0.1,0.3,0.0,0.0,0.2,0.1,0.0,0.1,0.3,0.1,0.0,0.4,0.3,0.2,0.2,0.3,0.1,0.6,0.1,0.5,0.1,0.2,0.1,0.2,0.1,0.1,0.3,0.3,0.2,0.2,0.2,0.1,0.4,0.3,0.3,0.1,0.1,0.4,0.4,0.2,0.2,0.0,0.2,0.1,0.3,0.3,0.2,0.2,0.1,0.3,0.1,0.2,0.1,0.1,0.3,0.5,0.4,0.0,0.3,0.2,0.2,0.4,0.4,0.4,0.1,0.1,0.3,0.1,0.1,0.0,0.1,0.2,0.2,0.0,0.1,0.4,0.1,0.1,0.1,0.1,0.1,0.0,0.2,0.2,0.3,0.1
0.3,0.2,0.3,0.2,0.0,0.2,0.3,0.1,0.1,0.1,0.3,0.2,0.1,0.3,0.0,0.3,0.1,0.3,0.2,0.3,0.2,0.2,0.1,0.2,0.1,0.0,0.2,0.2,0.0,0.2,0.1,0.2,0.4,0.3,0.0,0.4,0.2,0.0,0.4,0.1,0.2,0.0,0.1,0.2,0.0,0.1,0.0,0.2,0.1,0.2,0.3,0.1,0.2,0.5,0.2,0.3,0.2,0.4,1.2,0.3,0.0,0.2,0.1,0.0,0.1,0.0,0.1,0.0,0.1,0.1,0.3,0.2,0.2,0.3,0.1,0.1,0.0,0.1,0.1,0.2,0.2,0.0,0.2,0.1,0.0,0.2,0.2,0.2,0.2,0.2,0.1,0.0,0.4,0.0,0.0,0.1,0.0,0.0,0.1,0.4
0.3,0.1,0.2,0.1,0.3,0.3,0.2,0.1,0.4,0.2,0.0,0.5,0.1,0.1,0.1,0.1,0.3,0.1,0.3,0.1,0.3,0.1,0.5,0.4,0.3,0.2,0.1,0.2,0.0,0.3,0.1,0.3,0.3,0.0,0.1,0.1,0.4,0.3,0.2,0.2,0.3,0.3,0.2,0.3,0.1,0.1,0.2,0.3,0.2,0.3,0.2,0.4,0.1,0.1,0.3,0.0,0.1,0.0,0.5,0.1,0.0,0.1,0.1,0.1,0.1,0.1,0.1,0.1,0.0,0.1,0.3,0.3,0.1,0.2,0.1,1.1,0.8,0.7,0.2,0.0,0.1,0.5,0.0,0.1,0.2,0.2,0.1,0.3,0.0,0.1,0.0,0.1,0.5,0.2,0.3,0.1,0.2,0.1,0.1,0.3
0.3,0.0,0.3,0.2,0.4,0.1,0.1,0.1,0.2,0.3,0.2,0.0,0.0,0.1,0.1,0.1,0.2,0.6,0.1,0.3,0.1,0.4,0.2,0.0,0.0,0.1,0.0,0.1,0.3,0.1,0.0,0.9,0.8,0.3,0.1,0.3,0.0,0.2,0.2,0.3,0.1,0.0,0.3,0.1,0.4,0.2,0.1,0.2,0.0,0.2,0.2,0.0,0.1,0.5,0.2,0.1,0.0,0.2,0.1,0.2,0.2,0.3,0.2,0.3,0.0,0.3,0.0,0.1,0.2,0.0,0.2,0.3,0.3,0.1,0.1,0.0,0.1,0.0,0.1,0.1,0.2,0.0,0.1,0.1,0.1,0.2,0.1,0.2,0.0,0.1,0.3,0.4,0.0,0.3,0.3,0.1,0.1,0.2,0.0,0.3
0.2,0.0,0.1,0.2,0.3,0.0,0.2,0.4,0.2,0.3,0.3,0.1,0.1,0.3,0.1,0.3,0.0,0.2,0.3,0.0,0.8,0.2,0.0,0.1,0.3,0.2,0.1,0.0,0.2,0.3,0.2,0.1,0.0,0.1,0.2,0.0,0.4,0.4,0.0,0.1,0.2,0.3,0.1,0.2,0.3,0.0,0.4,0.1,0.0,0.5,0.2,0.2,0.2,0.3,0.0,0.1,0.1,0.2,0.2,0.2,0.5,0.1,0.0,0.3,0.5,0.1,0.5,0.4,0.3,0.2,0.1,0.1,0.1,0.0,0.0,0.6,0.0,0.3,0.0,0.5,0.1,0.1,0.0,0.2,0.2,0.1,0.2,0.3,0.4,0.2,0.1,0.1,0.1,0.2,0.2,0.2,0.4,0.2,0.2,0.1
0.1,0.1,0.1,0.4,0.1,0.3,0.6,0.1,0.2,0.2,0.1,0.4,0.1,0.1,0.3,0.5,0.4,0.1,0.0,0.0,0.0,0.2,0.2,0.2,0.2,0.0,0.3,0.0,0.4,0.0,0.2,0.1,0.3,0.3,0.2,0.0,0.1,0.1,0.1,0.3,0.1,0.4,0.2,0.3,0.3,0.3,0.3,0.4,0.2,0.2,0.1,0.1,0.2,0.4,0.1,0.0,0.1,0.3,0.1,0.3,0.1,0.1,0.0,0.0,0.2,0.2,0.0,0.3,0.2,0.1,0.3,0.4,0.1,0.1,0.3,0.1,0.3,0.2,0.2,0.0,0.0,0.1,0.2,0.4,0.5,0.1,0.1,0.2,0.4,0.1,0.3,0.2,0.0,0.1,0.0,0.0,0.1,0.2,0.4,0.0
0.0,0.2,0.0,0.0,0.3,0.2,0.0,0.0,0.2,0.0,0.3,0.3,0.2,0.3,0.0,0.1,0.3,0.2,0.2,0.1,0.2,0.3,0.4,0.1,0.1,0.1,0.0,0.0,0.1,0.0,0.5,0.3,0.0,0.6,0.4,0.1,0.4,0.4,0.2,0.1,0.4,0.3,0.2,0.2,0.1,0.2,0.1,0.4,0.3,0.1,0.4,0.0,0.3,0.1,0.3,0.3,0.1,0.4,0.1,0.1,0.1,0.5,0.0,0.1,0.2,0.1,0.1,0.2,0.4,0.0,0.4,0.0,0.0,0.2,0.0,0.1,0.3,0.2,0.3,0.4,0.2,0.2,0.2,0.5,0.2,0.2,0.2,0.1,0.1,0.1,0.0,0.0,0.2,0.0,0.2,0.0,0.3,0.0,0.1,0.2
0.1,0.0,0.0,0.2,0.3,0.1,0.3,0.0,0.1,0.2,0.3,0.1,0.0,0.1,0.2,0.0,0.5,0.3,0.1,0.3,0.3,0.1,0.2,0.1,0.2,0.3,0.1,0.0,0.0,0.2,0.2,0.0,0.0,0.0,0.4,0.1,0.3,0.0,0.3,0.3,0.1,0.4,0.1,0.1,0.3,0.1,0.1,0.4,0.3,0.1,0.2,0.4,0.2,0.1,0.2,0.2,0.0,0.2,0.1,0.5,0.1,0.0,0.3,0.2,0.1,0.2,0.1,0.1,0.0,0.0,0.4,0.4,0.5,0.2,0.4,0.0,0.3,0.3,0.2,0.2,0.2,0.4,0.1,0.1,0.3,0.4,0.2,0.5,0.3,0.1,0.3,0.0,0.1,0.5,0.1,0.0,0.2,0.3,0.2,0.5
0.3,0.1,0.0,0.3,0.1,0.2,0.0,0.2,0.0,0.3,0.1,0.5,0.2,0.2,0.3,0.1,0.2,0.2,0.3,0.5,0.0,0.4,0.1,0.5,0.1,0.1,0.4,0.1,0.1,0.2,0.3,0.3,0.2,0.2,0.2,0.5,0.3,0.1,0.3,0.3,0.1,0.1,0.1,0.3,0.2,0.1,0.3,0.0,0.1,0.1,0.0,0.3,0.0,0.2,0.0,0.1,0.0,0.2,0.0,0.4,0.1,0.1,0.3,0.3,0.3,0.1,0.3,0.2,0.1,0.4,0.2,0.2,0.2,0.3,0.3,0.3,0.2,0.2,0.1,0.1,0.3,0.1,0.1,0.1,0.0,0.2,0.4,0.0,0.1,0.2,0.1,0.1,0.1,0.1,0.1,0.0,0.1,0.3,0.2,0.1
0.0,0.3,0.3,0.0,0.0,0.0,0.1,0.0,0.2,0.2,0.2,0.1,0.3,0.3,0.1,0.3,0.2,0.1,0.3,0.1,0.1,0.1,0.1,0.6,0.1,0.1,0.5,0.1,0.2,0.0,0.3,0.1,0.1,0.0,0.0,0.0,0.1,0.3,0.0,0.2,0.0,0.0,0.1,0.1,0.2,0.0,0.4,0.1,0.5,0.3,0.6,0.0,0.5,0.3,0.1,0.4,0.0,0.2,0.3,0.1,0.2,0.2,0.2,0.0,0.2,0.1,0.3,0.0,0.3,0.1,0.2,0.4,0.0,0.0,0.0,0.2,0.2,0.1,0.0,0.2,0.2,0.2,0.2,0.0,0.2,0.1,0.0,0.0,0.2,0.1,0.1,0.1,0.1,0.1,0.1,0.0,0.0,0.2,0.0,0.0
0.1,0.3,0.1,0.3,0.2,0.2,0.2,0.3,0.2,0.3,0.3,0.1,0.2,0.0,0.1,0.3,0.2,0.5,0.1,0.0,0.2,0.0,0.1,0.4,0.3,0.3,0.2,0.2,0.2,0.1,0.4,0.1,0.3,0.1,0.3,0.2,0.2,0.1,0.0,0.3,0.1,0.3,0.2,0.1,0.0,0.0,0.3,0.0,0.0,0.1,0.2,0.0,0.0,0.1,0.1,0.3,0.1,0.3,0.4,0.2,0.2,0.1,0.1,0.1,0.1,0.1,0.0,0.3,0.3,0.1,0.1,0.3,0.0,0.2,0.2,0.0,0.0,0.1,0.4,0.4,0.4,0.4,0.1,0.0,0.0,0.1,0.3,0.1,0.5,0.3,0.3,0.2,0.1,0.2,0.4,0.1,0.3,0.2,0.2,0.0
0.2,0.1,0.1,0.2,0.2,0.3,0.3,0.2,0.0,0.4,0.1,0.2,0.3,0.0,0.2,0.1,0.1,0.1,0.0,0.3,0.0,0.3,0.0,0.1,0.0,0.2,0.4,0.0,0.1,0.0,0.0,0.3,0.2,0.2,0.2,0.3,0.3,0.1,0.2,0.2,0.1,0.1,0.3,0.2,0.0,0.0,0.3,0.4,0.0,0.3,0.3,0.4,0.2,0.2,0.5,0.1,0.2,0.4,0.4,0.2,0.2,0.2,0.2,0.2,0.0,0.2,0.2,0.1,0.2,0.0,0.3,0.1,0.3,0.2,0.1,0.2,0.3,0.1,0.2,0.2,0.2,0.2,0.1,0.2,0.3,0.3,0.0,0.2,0.2,0.3,0.2,0.1,0.4,0.2,0.3,0.1,0.3,0.1,0.3,0.3
0.1,0.0,0.1,0.2,0.3,0.2,0.2,0.3,0.2,0.1,0.4,0.2,0.5,0.4,0.1,0.3,0.1,0.1,0.6,0.3,0.1,0.2,0.1,0.1,0.4,0.1,0.0,0.2,0.1,0.4,0.1,0.3,0.0,0.0,0.0,0.1,0.3,0.1,0.5,0.1,0.2,0.2,0.3,0.2,0.5,0.1,0.3,0.3,0.4,0.0,0.0,0.1,0.2,0.2,0.1,0.2,0.1,0.4,0.1,0.2,0.2,0.1,0.1,0.1,0.2,0.2,0.3,0.0,0.0,0.1,0.1,0.1,0.5,0.5,0.4,0.3,0.1,0.1,0.0,0.0,0.0,0.0,0.2,0.0,0.1,0.3,0.1,0.2,0.3,0.6,0.2,0.0,0.4,0.1,0.1,0.2,0.2,0.2,0.6,0.3
0.0,0.1,0.1,0.1,0.5,0.1,0.0,0.1,0.1,0.1,0.1,0.1,0.3,0.1,0.1,0.4,0.1,0.1,0.3,0.0,0.2,0.1,0.2,0.7,0.1,0.1,0.2,0.3,0.1,0.0,0.0,0.0,0.4,0.3,0.1,0.0,0.2,0.3,0.1,0.1,0.2,0.2,0.1,0.3,0.2,0.1,0.3,0.1,0.0,0.2,0.5,0.3,0.6,0.0,0.0,0.3,0.4,0.2,0.1,0.5,0.1,0.0,0.1,0.2,0.2,0.2,0.3,0.2,0.6,0.1,0.2,0.2,0.1,0.2,0.2,0.2,0.1,0.4,0.1,0.0,0.3,0.1,0.3,0.2,0.2,0.1,0.1,0.2,0.1,0.2,0.4,0.1,0.1,0.3,0.1,0.1,0.0,0.2,0.0,0.1
0.3,0.6,0.2,0.2,0.2,0.3,0.2,0.0,0.1,0.2,0.2,0.2,0.0,0.0,0.0,0.4,0.2,0.2,0.3,0.2,0.1,0.1,0.4,0.3,0.0,0.2,0.1,0.2,0.0,0.1,0.3,0.2,0.0,0.2,0.1,0.2,0.2,0.2,0.1,0.2,0.2,0.3,0.1,0.3,0.5,0.1,0.0,0.2,0.0,0.0,0.1,0.3,0.3,0.6,0.1,0.1,0.1,0.1,0.1,0.3,0.1,0.2,0.3,0.1,0.3,0.4,0.2,0.1,0.1,0.4,0.2,0.3,0.0,0.3,0.3,0.1,0.4,0.3,0.3,0.0,0.3,0.1,0.2,0.3,0.3,0.4,0.1,0.1,0.2,0.4,0.0,0.1,0.1,0.3,0.6,0.5,0.2,0.3,0.1,0.2
0.1,0.6,0.2,0.4,0.3,0.2,0.2,0.5,0.1,0.2,0.3,0.3,0.2,0.0,0.1,0.3,0.4,0.1,0.0,0.1,0.1,0.4,0.0,0.2,0.0,0.2,0.4,0.1,0.4,0.1,0.3,0.2,0.2,0.2,0.1,0.2,0.0,0.3,0.0,0.2,0.0,0.2,0.0,0.2,0.1,0.4,0.4,0.4,0.3,0.0,0.5,0.4,0.1,0.1,0.1,0.0,0.2,0.3,0.2,0.3,0.1,0.2,0.1,0.2,0.4,0.2,0.1,0.2,0.2,0.2,0.1,0.3,0.1,0.1,0.2,0.6,0.1,0.2,0.0,0.4,0.0,0.3,0.0,0.3,0.2,0.3,0.0,0.3,0.2,0.5,0.4,0.2,0.4,0.3,0.4,0.5,0.1,0.2,0.2,0.2
0.1,0.0,0.3,0.1,0.1,0.1,0.4,0.3,0.1,0.4,0.2,0.3,0.2,0.1,0.1,0.0,0.4,0.1,0.3,0.1,0.0,0.1,0.3,0.0,0.0,0.1,0.3,0.3,0.0,0.3,0.1,0.0,0.2,0.0,0.1,0.1,0.1,0.0,0.1,0.1,0.1,0.3,0.3,0.4,0.3,0.0,0.3,0.2,0.3,0.0,0.0,0.1,0.2,0.0,0.2,0.1,0.2,0.2,0.3,0.4,0.1,0.4,0.1,0.1,0.1,0.2,0.1,0.0,0.2,0.2,0.1,0.1,0.2,0.2,0.0,0.2,0.1,0.2,0.1,0.1,0.1,0.1,0.3,0.2,0.0,0.1,0.3,0.1,0.2,0.0,0.0,0.0,0.0,0.3,4.1,6.4,0.7,0.1,0.3,0.0
0.4,0.2,0.3,0.5,0.3,0.1,0.1,0.2,0.4,0.2,0.1,0.3,0.1,0.2,0.2,0.4,0.1,0.2,0.2,0.0,0.3,0.3,0.2,0.4,0.1,0.2,0.2,0.0,0.1,0.0,0.1,0.1,0.4,0.2,0.4,0.1,0.2,0.4,0.2,0.3,0.3,0.2,0.0,0.0,0.2,0.2,0.0,0.0,0.2,0.2,0.4,0.5,0.1,0.5,0.2,0.2,0.2,0.2,0.1,0.9,7.5,2.1,0.4,0.3,0.1,0.2,0.1,0.3,0.3,0.0,0.2,0.1,0.1,0.3,0.2,0.4,0.1,0.1,0.1,0.1,0.1,0.1,0.0,0.2,0.0,0.2,0.1,0.2,0.1,0.1,0.0,0.2,0.4,0.2,0.3,0.9,0.1,0.2,0.0,0.5
0.4,0.0,0.1,0.4,0.0,0.2,0.2,0.4,0.4,0.2,0.4,0.1,0.2,0.1,0.1,0.0,0.1,0.1,0.3,0.1,0.0,0.1,0.3,0.0,0.6,0.1,0.3,0.0,0.1,0.2,0.2,0.1,0.2,0.0,0.1,0.3,0.0,0.1,0.0,0.1,0.1,0.0,0.4,0.0,0.3,0.1,0.2,0.3,0.1,0.1,0.3,0.3,0.1,0.1,0.1,0.0,0.3,0.1,0.4,2.6,11.7,3.0,0.1,0.6,0.5,0.0,0.3,0.1,0.1,0.2,0.4,0.1,0.3,0.3,0.3,0.1,0.1,0.1,0.3,0.3,0.1,0.2,0.1,0.2,0.1,0.2,0.2,0.1,0.2,0.2,0.3,0.0,0.0,0.1,0.1,0.1,0.1,0.2,0.0,0.3
0.5,0.3,0.3,0.1,0.3,0.1,0.0,0.1,0.4,0.2,0.4,0.3,0.5,0.3,0.2,0.0,0.1,0.0,0.2,0.1,0.3,0.2,0.2,0.2,0.1,0.4,0.2,0.1,0.1,0.3,0.1,0.0,0.2,0.1,0.1,0.4,0.1,0.4,0.2,0.1,0.1,0.2,0.2,0.0,0.1,0.2,0.2,0.1,0.1,0.3,0.0,0.1,0.1,0.2,0.1,0.2,0.3,0.5,0.0,0.2,0.1,0.7,0.5,0.0,0.2,0.0,0.0,0.1,0.3,0.3,0.2,0.4,0.0,0.1,0.2,0.1,0.2,0.0,0.1,0.2,0.2,0.1,0.2,0.2,0.1,0.2,0.2,0.1,0.3,0.0,0.2,0.3,0.2,0.1,0.4,0.3,0.3,0.2,0.1,0.2
0.4,0.5,0.0,0.1,0.3,0.3,0.3,0.1,0.2,0.1,0.3,0.2,0.2,0.3,0.1,0.2,0.3,0.2,0.2,0.4,0.2,0.1,0.3,0.3,0.1,0.1,0.2,0.2,0.2,0.1,0.2,0.1,0.1,0.1,0.0,0.1,0.2,0.5,0.0,0.2,0.4,0.2,0.2,0.2,0.3,0.4,0.3,0.2,0.3,0.1,0.0,0.3,0.1,0.2,0.0,0.1,0.2,0.3,0.6,0.3,0.1,0.3,0.0,0.2,0.5,0.4,0.1,0.4,0.1,0.5,0.0,0.4,0.2,0.3,0.2,0.1,0.1,0.5,0.3,0.2,0.0,0.1,0.6,0.2,0.0,0.1,0.1,0.3,0.0,0.3,0.0,0.1,0.3,0.2,0.0,0.0,0.2,0.3,0.2,0.2
0.3,0.2,0.2,0.2,0.5,0.0,0.1,0.1,0.1,0.0,0.2,0.1,0.0,0.2,0.1,0.0,0.4,0.2,0.1,0.1,0.4,0.2,0.0,0.0,0.3,0.3,0.0,0.0,0.4,0.6,0.1,0.4,0.2,0.2,0.3,0.4,0.1,0.4,0.0,0.1,0.3,0.0,0.1,0.1,0.3,0.4,0.1,0.0,0.2,0.1,0.1,0.1,0.2,0.1,0.5,0.3,0.2,0.2,0.1,0.0,0.0,0.1,0.1,0.1,0.0,0.4,0.6,0.3,0.1,0.0,0.2,0.3,0.2,0.3,0.7,0.3,0.2,0.2,0.1,0.1,0.4,0.0,0.0,0.1,0.0,0.2,0.2,0.0,0.2,0.2,0.2,0.1,0.3,0.0,0.1,0.0,0.0,0.2,0.5,0.3
0.4,0.1,0.1,0.1,0.1,0.0,0.2,0.0,0.0,0.2,0.4,0.4,0.4,0.1,0.1,0.2,0.0,0.0,0.2,0.0,0.2,0.2,0.4,0.1,0.0,0.1,0.1,0.2,0.0,0.2,0.1,0.3,0.1,0.1,0.2,0.7,0.2,0.4,0.1,0.3,0.3,0.1,0.5,0.4,0.1,0.2,0.3,0.1,0.0,0.1,0.2,0.2,0.0,0.2,0.2,0.0,0.1,0.1,0.0,0.1,0.4,0.3,0.3,0.1,0.0,0.0,0.3,0.1,0.1,0.3,0.0,0.1,0.5,0.0,0.0,0.1,0.3,0.4,0.2,0.3,0.4,0.2,0.3,0.3,0.1,0.3,0.1,0.1,0.0,0.3,0.3,0.0,0.2,0.3,0.0,0.1,0.3,0.5,0.3,0.2
0.0,0.3,0.2,0.1,0.0,0.3,0.1,0.2,0.5,0.1,0.2,0.3,0.2,0.1,0.2,0.1,0.0,0.4,0.2,0.4,0.2,0.2,0.3,0.1,0.2,0.1,0.3,0.1,0.1,0.1,0.2,0.3,0.1,0.3,0.1,0.1,0.4,0.1,0.3,0.1,0.0,0.1,0.2,0.1,0.4,0.0,0.1,0.1,0.0,0.1,0.1,0.6,0.1,0.3,0.3,0.1,0.5,0.2,0.5,0.1,0.2,0.1,0.2,0.6,0.1,0.2,0.1,0.2,0.2,0.3,0.3,0.6,0.2,0.1,0.1,0.0,0.3,0.1,0.6,0.3,0.3,0.1,0.3,0.0,0.0,0.1,0.3,0.2,0.0,0.5,0.1,0.3,0.1,0.3,0.1,0.2,0.1,0.1,0.1,0.0
0.4,0.2,0.1,0.2,0.2,0.0,0.2,0.2,0.0,0.3,0.2,0.2,0.3,0.3,0.2,0.4,0.2,0.2,0.6,0.0,0.2,0.2,0.4,0.2,0.3,0.1,0.2,0.3,0.2,0.2,0.2,0.2,0.0,0.1,0.0,0.1,0.0,0.2,0.4,0.1,0.3,0.4,0.0,0.3,0.3,0.2,0.2,0.2,0.3,0.6,0.2,0.1,0.3,0.0,0.0,0.3,0.2,0.0,0.3,0.1,0.1,0.1,0.1,0.0,0.0,0.1,0.2,0.4,0.1,0.1,0.4,0.2,0.0,0.2,0.2,0.3,0.0,0.2,0.1,0.1,0.2,0.1,0.0,0.2,0.0,0.0,0.2,0.1,0.3,0.1,0.2,0.1,0.1,0.1,0.0,0.0,0.2,0.1,0.2,0.4
0.1,0.2,0.1,0.1,0.1,0.2,0.1,0.1,0.1,0.0,0.2,0.2,0.2,0.2,0.1,0.2,0.1,0.1,0.3,0.1,0.0,0.3,0.6,0.2,0.2,0.3,0.1,0.2,0.2,0.1,0.2,0.0,0.1,0.3,0.3,0.1,0.4,0.2,0.2,0.2,0.0,0.1,0.1,0.2,0.2,0.1,0.2,0.3,0.1,0.1,0.0,0.2,0.3,0.3,0.2,0.1,0.2,0.1,0.2,0.2,0.1,0.0,0.4,0.3,0.3,0.2,0.3,0.3,0.0,0.3,0.3,0.3,0.4,0.2,0.2,0.3,0.3,0.1,0.0,0.1,0.2,0.4,0.5,0.1,0.1,0.2,0.5,0.4,0.7,0.2,0.3,0.1,0.2,0.2,0.1,0.2,0.0,0.0,0.0,0.3
0.3,0.2,0.2,0.2,0.0,0.2,0.0,0.1,0.2,0.1,0.2,0.2,0.1,0.1,0.0,0.2,0.1,0.4,0.4,0.1,0.3,0.5,0.1,0.2,0.1,0.3,0.2,0.0,0.4,0.1,0.2,0.3,0.1,0.0,0.1,0.1,0.1,0.2,0.2,0.2,0.3,0.1,0.1,0.1,0.3,0.0,0.2,0.1,0.1,0.4,0.3,0.0,0.2,0.2,0.3,0.1,0.3,0.3,0.1,0.2,0.0,0.3,0.0,0.2,0.1,0.0,0.0,0.2,0.1,0.2,0.2,0.3,0.3,0.0,0.5,0.6,0.1,0.1,0.7,0.3,0.4,0.1,0.2,0.4,0.1,0.1,0.2,0.1,0.2,0.6,0.2,0.0,0.1,0.0,0.1,0.2,0.0,0.2,0.1,0.0
0.1,0.5,0.2,0.3,0.1,0.1,0.4,0.3,0.1,0.1,0.0,0.0,0.1,0.0,0.2,0.2,0.3,0.0,0.1,0.3,0.2,0.2,0.2,0.0,0.3,0.1,0.2,0.1,0.2,0.3,0.1,0.0,0.1,0.1,0.2,0.2,0.2,0.4,0.0,0.1,0.1,0.1,0.3,0.1,0.1,0.1,0.4,0.2,0.1,0.2,0.2,0.2,0.0,0.1,0.0,0.2,0.3,0.2,0.1,0.1,0.0,0.0,0.2,0.2,0.0,0.2,0.1,0.0,0.2,0.2,0.4,0.2,0.3,0.1,0.1,0.1,0.2,0.1,0.1,0.0,0.2,0.3,0.1,0.1,0.0,0.5,0.3,0.2,0.2,0.1,0.1,0.2,0.1,0.3,0.0,0.3,0.0,0.1,0.1,0.4
0.3,0.2,0.0,0.2,0.5,0.3,0.3,0.3,0.3,0.0,0.2,0.1,0.1,0.1,0.2,0.2,0.1,0.0,0.1,0.3,0.2,0.2,0.2,0.3,0.2,0.2,0.2,0.2,0.0,0.0,0.1,0.1,0.3,0.2,0.3,0.1,0.1,0.2,0.1,0.3,0.6,0.2,0.2,0.1,0.2,0.2,0.2,0.2,0.3,0.1,0.2,0.2,0.2,0.3,0.0,0.0,0.2,0.3,0.1,0.1,0.4,0.5,0.1,0.3,0.1,0.0,0.5,0.4,0.2,0.0,0.1,0.1,0.3,0.2,0.7,0.3,0.0,0.3,0.0,0.2,0.2,0.3,0.5,0.2,0.4,0.1,0.4,0.2,0.1,0.5,0.1,0.3,0.3,0.4,0.1,0.1,0.6,0.2,0.0,0.5
0.3,0.3,0.3,0.0,0.4,0.2,0.4,0.2,0.1,0.3,0.1,0.2,0.1,0.5,0.3,0.2,0.1,0.0,0.4,0.2,0.0,0.2,0.4,0.4,0.2,0.4,0.1,0.5,0.0,0.0,0.1,0.2,0.3,0.0,0.2,0.5,0.1,0.2,0.2,0.2,0.1,0.2,0.1,0.4,0.0,0.0,0.0,0.1,0.4,0.2,0.2,0.2,0.1,0.3,0.1,0.2,0.1,0.3,0.2,0.1,0.1,0.0,0.1,0.1,0.2,0.4,0.3,0.1,0.4,0.4,0.5,0.1,0.3,0.1,0.1,0.2,0.3,0.2,0.1,0.0,0.0,0.2,0.2,0.3,0.5,0.1,0.1,0.1,0.3,0.1,0.1,0.2,0.0,0.1,0.3,0.1,0.0,0.2,0.2,0.1
0.0,0.1,0.1,0.2,0.3,0.2,0.2,0.4,0.1,0.2,0.1,0.2,0.1,0.4,0.0,0.1,0.1,0.1,0.3,0.0,0.3,0.1,0.5,0.3,0.4,0.1,0.1,0.1,0.2,0.1,0.1,0.2,0.2,0.1,0.1,0.3,0.1,0.2,0.4,0.2,0.2,0.3,0.4,0.4,0.1,0.1,0.2,0.3,0.0,0.0,0.1,0.2,0.1,0.1,0.0,0.2,0.1,0.0,0.1,0.3,0.2,0.0,0.0,0.0,0.1,0.2,0.1,0.2,0.0,0.1,0.1,0.1,0.2,0.1,0.2,0.1,0.3,0.1,0.2,0.2,0.3,0.2,0.4,0.3,0.1,0.1,0.2,0.2,0.4,0.2,0.2,0.4,0.1,0.3,0.3,0.0,0.3,0.3,0.2,0.3
0.3,0.3,0.2,0.2,0.1,0.3,0.2,0.2,0.3,0.1,0.1,0.2,0.2,0.1,0.3,0.4,0.0,0.1,0.4,0.4,0.2,0.4,0.1,0.2,0.3,0.2,0.2,0.1,0.1,0.1,0.2,0.2,0.1,0.2,0.3,0.2,0.4,0.5,0.1,0.3,0.1,0.4,0.1,0.2,0.6,0.0,0.3,0.2,0.0,0.1,0.2,0.2,0.3,0.0,0.2,0.0,0.3,0.1,0.1,0.1,0.4,0.1,0.2,0.2,0.2,0.2,0.2,0.3,0.3,0.1,0.0,0.2,0.3,0.3,0.4,0.3,0.2,0.1,0.2,0.2,0.1,0.0,0.0,0.2,0.0,0.2,0.2,0.0,0.2,0.1,0.0,0.1,0.1,0.4,0.3,0.0,0.2,0.2,0.0,0.3
0.1,0.1,0.1,0.6,0.1,0.1,0.4,0.1,0.2,0.3,0.2,0.1,0.1,0.0,0.2,0.1,0.3,0.0,0.2,0.1,0.0,0.3,0.4,0.3,0.1,0.3,0.0,0.0,0.0,0.3,0.6,0.2,0.1,0.2,0.1,0.2,0.1,0.2,0.0,0.4,0.3,0.2,0.4,0.1,0.3,0.4,0.1,0.3,0.3,0.1,0.2,0.1,0.2,0.3,0.0,0.1,0.3,0.2,0.1,0.2,0.3,0.4,0.2,0.1,0.1,0.2,0.1,0.2,0.3,0.4,0.2,0.3,0.5,0.1,0.1,0.3,0.3,0.2,0.2,0.2,0.3,0.3,0.3,0.3,0.2,0.1,0.2,0.5,0.2,0.1,0.1,0.1,0.1,0.1,0.0,0.1,0.3,0.3,0.0,0.3
0.5,0.2,0.2,0.2,0.1,0.0,0.0,0.1,0.2,0.2,0.2,0.0,0.1,0.2,0.2,0.0,0.0,0.0,0.2,0.2,0.5,0.2,0.1,0.4,0.2,0.1,0.1,0.2,0.3,0.2,0.2,0.1,0.3,0.1,0.1,0.1,0.4,0.1,0.1,0.0,0.2,0.2,0.5,0.2,0.2,0.0,0.0,0.1,0.5,0.1,0.1,0.0,0.1,0.5,0.2,0.2,0.3,0.4,0.3,0.3,0.2,0.0,0.0,0.2,0.1,0.2,0.3,0.1,0.1,0.1,0.3,0.0,0.2,0.0,0.2,0.3,0.3,0.3,0.0,0.0,0.4,0.0,0.3,0.1,0.2,0.1,0.1,0.3,0.4,0.2,0.3,0.2,0.4,0.1,0.2,0.2,0.2,0.0,0.3,0.1
0.3,0.0,0.1,0.0,0.6,0.2,0.1,0.0,0.1,0.0,0.6,0.2,0.1,0.0,0.2,0.0,0.3,0.2,0.1,0.3,0.3,0.3,0.1,0.2,0.2,0.1,0.0,0.1,0.4,0.1,0.2,0.1,0.4,0.2,0.5,0.3,0.2,0.1,0.2,0.1,0.1,0.2,0.1,0.1,0.1,0.1,0.1,0.2,0.3,0.3,0.4,0.1,0.4,0.3,0.3,0.1,0.1,0.0,0.1,0.1,0.3,0.3,0.2,0.2,0.4,0.2,0.0,0.2,0.1,0.1,0.1,0.2,0.2,0.1,0.6,1.0,0.3,0.2,0.2,0.1,0.1,0.3,0.1,0.1,0.2,0.6,0.3,0.5,0.1,0.1,0.2,0.2,0.1,0.1,0.2,2.0,1.9,0.2,0.2,0.2
0.4,0.4,0.2,0.4,0.2,0.3,0.4,0.3,0.4,0.2,0.1,0.1,0.2,0.2,0.1,0.1,0.0,0.4,0.1,0.0,0.0,0.2,0.0,0.3,0.4,0.5,0.5,0.0,0.1,0.0,0.0,0.2,0.0,0.2,0.4,0.3,0.1,0.2,0.4,0.3,0.0,0.1,0.0,0.0,0.2,0.3,0.1,0.2,0.3,0.1,0.3,0.2,0.2,0.3,0.1,0.2,0.3,0.3,0.4,0.5,0.1,0.0,0.2,0.1,0.4,0.4,0.2,0.0,0.0,0.2,0.2,0.0,0.0,0.1,0.3,0.1,0.2,0.0,0.0,0.1,0.0,0.2,0.5,0.5,0.2,0.0,0.1,0.1,0.1,0.5,0.4,0.4,0.1,0.5,0.1,2.0,1.6,0.5,0.1,0.4
0.4,0.1,0.3,0.2,0.0,0.0,0.4,0.5,0.7,0.3,0.4,0.1,0.1,0.1,0.1,0.0,0.1,0.0,0.2,0.1,0.1,0.3,0.1,0.5,0.3,0.3,0.2,0.5,0.0,0.1,0.3,0.0,0.2,0.0,0.1,0.0,0.0,0.3,0.4,0.1,0.4,0.2,0.1,0.2,0.6,0.3,0.3,0.2,0.2,0.1,0.2,0.2,0.3,0.4,0.5,0.1,0.1,0.0,0.2,0.1,0.1,0.2,0.2,0.0,0.2,0.4,0.2,0.2,0.3,0.0,0.0,0.3,0.4,0.3,0.3,0.1,0.0,0.1,0.3,0.1,0.6,0.2,0.3,0.4,0.5,0.2,0.0,0.1,0.2,0.1,0.2,0.1,0.2,0.2,0.0,0.0,0.1,0.3,0.2,0.3
0.2,0.1,0.5,0.1,0.0,0.1,0.2,0.2,0.1,0.4,0.0,0.3,0.1,0.1,0.3,0.3,0.2,0.2,0.1,0.3,0.1,0.2,0.0,0.1,0.2,0.2,0.4,0.2,0.2,0.1,0.3,0.4,0.1,0.2,0.1,0.1,0.1,0.4,0.0,0.1,0.2,0.0,0.4,0.1,0.1,0.1,0.2,0.4,0.2,0.3,0.3,0.0,0.1,0.2,0.2,0.0,0.4,0.3,0.0,0.3,0.3,0.1,0.4,0.2,0.1,0.4,0.3,0.3,0.0,0.1,0.1,0.3,0.3,0.3,0.4,0.3,0.3,0.2,0.2,0.1,0.0,0.3,0.0,0.4,0.3,0.1,0.2,0.1,0.1,0.0,0.2,0.1,0.3,0.2,0.1,0.4,0.2,0.0,0.2,0.4
0.3,0.1,0.6,0.3,0.3,0.3,0.1,0.1,0.0,0.1,0.1,0.1,0.1,0.1,0.2,0.3,0.6,0.0,0.0,0.4,0.2,0.3,0.2,0.2,0.2,0.3,0.0,0.2,0.1,0.2,0.3,0.1,0.1,0.3,0.2,0.1,0.1,0.2,0.3,0.2,0.3,0.2,0.1,0.3,0.1,0.0,0.1,0.3,0.2,0.2,0.4,0.1,0.0,0.2,0.1,0.2,0.5,0.0,0.3,0.2,0.0,0.0,0.4,0.0,0.2,0.2,0.5,0.1,0.1,0.1,0.2,0.0,0.3,0.1,0.1,0.2,0.2,0.0,0.2,0.0,0.0,0.3,0.5,0.4,0.1,0.1,0.5,0.1,0.1,0.1,0.2,0.1,0.4,0.2,0.4,0.1,0.3,0.2,0.3,0.2
0.4,0.2,0.0,0.4,0.0,0.2,0.1,0.0,0.0,0.2,0.3,0.1,0.0,0.2,0.1,0.1,0.0,0.1,0.3,0.2,0.1,0.2,0.3,0.0,0.1,0.2,0.6,0.3,0.2,0.0,0.2,0.3,0.1,0.4,0.4,0.3,0.3,0.2,0.4,0.1,0.1,0.1,0.1,0.3,0.3,0.1,0.4,0.2,0.3,0.4,0.0,0.0,0.5,0.3,0.2,0.1,0.2,0.1,0.2,0.2,0.1,0.0,0.2,0.4,0.0,0.2,0.1,0.2,0.2,0.1,0.4,0.2,0.1,0.4,0.2,0.1,0.1,0.2,0.3,0.3,0.1,0.3,0.2,0.1,0.2,0.1,0.0,0.3,0.3,0.1,0.2,0.2,0.1,0.4,0.0,0.2,0.3,0.1,0.0,0.2
0.1,0.2,0.0,0.3,0.1,0.1,0.3,0.3,0.3,0.2,0.2,0.0,0.1,0.3,0.1,0.0,0.1,0.3,0.3,0.1,0.3,0.0,0.4,0.2,0.2,0.3,0.1,0.1,0.1,0.2,0.1,0.4,0.2,0.0,0.3,0.1,0.2,0.2,0.2,0.2,0.1,0.2,0.3,0.2,0.2,0.2,0.1,0.1,0.4,0.2,0.3,0.3,0.4,0.0,0.1,0.0,0.2,0.1,0.2,0.0,0.3,0.4,0.4,0.1,0.1,0.0,0.4,0.0,0.2,0.2,0.1,0.1,0.3,0.0,0.0,0.1,0.1,0.2,0.1,0.3,0.1,0.2,0.1,0.2,0.3,0.1,0.2,0.2,0.4,0.1,0.2,0.6,0.0,0.0,0.1,0.1,0.0,0.0,0.3,0.1
0.5,0.2,0.0,0.5,0.6,0.4,0.2,0.2,0.2,0.3,0.1,0.1,0.2,0.2,0.0,0.3,0.0,0.1,0.2,0.2,0.0,0.0,0.3,0.2,0.3,0.4,0.2,0.3,0.1,0.1,0.3,0.1,0.3,0.0,0.2,0.1,0.3,0.2,0.0,0.1,0.4,0.1,0.0,0.2,0.0,0.0,0.2,0.1,0.0,0.1,0.3,0.1,0.3,0.6,0.2,0.0,0.3,0.1,0.4,0.1,0.1,0.2,0.2,0.2,0.1,0.1,0.3,0.2,0.3,0.1,0.2,0.3,0.3,0.1,0.0,0.1,0.1,0.1,0.2,0.1,0.2,0.1,0.1,0.4,0.0,0.1,0.2,0.2,0.3,0.2,0.0,0.0,0.1,0.2,0.0,0.1,0.4,0.3,0.3,0.4
0.1,0.2,0.6,0.4,0.2,0.2,0.2,0.1,0.0,0.0,0.3,0.2,0.4,0.2,0.0,0.0,0.3,0.1,0.2,0.1,0.1,0.3,0.0,0.2,0.4,0.0,0.2,0.1,0.2,0.0,0.3,0.0,0.2,0.4,0.2,0.4,0.2,0.1,0.0,0.4,0.1,0.2,0.5,0.1,0.1,0.3,0.2,0.1,0.2,0.3,0.1,0.3,0.1,0.2,0.1,0.4,0.1,0.1,0.1,0.1,0.0,0.2,0.1,0.2,0.2,0.3,0.1,0.1,0.1,0.1,0.6,0.2,0.1,0.0,0.0,0.5,0.4,0.3,0.2,0.3,0.5,0.1,0.4,0.1,0.2,0.1,0.2,0.2,0.2,0.4,0.1,0.1,0.2,0.2,0.2,0.2,0.2,0.4,0.2,0.2
0.1,0.3,0.1,0.3,0.2,0.2,0.2,0.1,0.4,0.1,0.3,0.0,0.2,0.4,0.3,0.2,0.1,0.2,0.1,0.7,0.0,0.1,0.0,0.1,0.1,0.1,0.0,0.1,0.1,0.1,0.3,0.2,0.1,0.1,0.0,0.3,0.4,0.1,0.2,0.1,0.2,0.2,0.3,0.3,0.3,0.1,0.1,0.1,0.1,0.3,0.2,0.3,0.1,0.0,0.5,0.2,0.2,0.4,0.0,0.1,0.1,0.1,0.2,0.3,0.2,0.2,0.3,0.1,0.1,0.4,0.2,0.2,0.1,0.1,0.2,0.2,0.2,0.1,0.1,0.1,0.0,0.0,0.1,0.3,0.2,0.1,0.3,0.3,0.0,0.2,0.0,0.1,0.2,0.0,0.3,0.3,0.1,0.2,0.1,0.1
0.5,0.0,0.1,0.2,0.0,0.2,0.2,0.0,0.2,0.1,0.2,0.0,0.2,0.3,0.4,0.1,0.1,0.1,0.1,0.0,0.1,0.5,0.1,0.4,0.3,0.1,0.4,0.1,0.6,0.2,0.1,0.3,0.6,0.4,0.3,0.2,0.5,0.1,0.2,0.1,0.0,0.0,0.4,0.1,0.3,0.3,0.0,0.2,0.1,0.3,0.3,0.2,0.1,0.7,0.1,0.1,0.4,0.0,0.3,0.1,0.6,0.1,0.0,0.1,0.4,0.2,0.1,0.0,0.1,0.2,0.0,0.2,0.1,0.1,0.0,0.1,0.1,0.2,0.1,0.3,0.1,0.3,0.0,0.1,0.3,0.1,0.2,0.5,0.6,0.2,0.2,0.3,0.1,0.2,0.5,0.0,0.3,0.1,0.2,0.4
0.6,0.1,0.0,0.3,0.5,0.2,0.0,0.2,0.3,0.1,0.2,0.1,0.2,0.3,0.6,0.0,0.3,0.4,0.4,0.0,0.0,0.1,0.2,0.0,0.4,0.3,0.3,0.3,0.3,0.4,0.2,0.1,0.2,0.2,0.2,0.0,0.0,0.2,0.4,0.2,0.3,0.2,0.1,0.3,0.0,0.3,0.3,0.1,0.1,0.2,0.1,0.3,0.3,0.1,0.1,0.1,0.0,0.3,0.2,0.2,0.1,0.1,0.2,0.1,0.3,0.3,0.2,0.2,0.2,0.2,0.0,0.0,0.0,0.1,0.3,0.2,0.0,0.4,0.1,0.3,0.0,0.3,0.3,0.0,0.0,0.2,0.4,0.3,0.3,0.1,0.1,0.2,0.1,0.2,0.6,0.4,0.2,0.1,0.1,0.2
0.1,0.0,0.1,0.3,0.1,0.2,0.1,0.2,0.1,0.1,0.1,0.2,0.0,0.3,0.3,0.1,0.2,0.0,0.6,0.0,0.3,0.2,0.1,0.3,0.4,0.0,0.2,0.1,0.0,0.2,0.3,0.1,0.0,0.2,0.3,0.3,0.2,0.3,0.3,0.3,0.0,0.4,0.3,0.4,0.1,0.0,0.4,0.1,0.2,0.2,0.0,0.2,0.2,0.1,0.1,0.3,0.0,0.0,0.1,0.0,0.3,0.2,0.4,0.1,0.1,0.3,0.3,0.1,0.0,0.2,0.3,0.2,0.4,0.3,0.3,0.1,0.1,0.2,0.1,0.0,0.3,0.1,0.0,0.2,0.0,0.3,0.2,0.1,0.1,0.2,0.1,0.2,0.3,0.2,0.3,0.3,0.2,0.1,0.3,0.2
0.3,0.3,0.2,0.2,0.2,0.2,0.1,0.7,0.1,0.2,0.3,0.2,0.3,0.2,0.3,0.3,0.0,0.3,0.1,0.2,0.6,0.3,0.4,0.1,0.4,0.0,0.3,0.1,0.2,0.2,0.1,0.0,0.3,0.0,0.0,0.1,0.4,0.4,0.4,0.1,0.3,0.2,0.1,0.0,0.4,0.0,0.5,0.4,0.4,0.2,0.1,0.4,0.1,0.4,0.1,0.2,0.0,0.1,0.2,0.3,0.1,0.1,0.2,0.0,0.1,0.5,0.3,0.4,0.1,0.1,0.1,0.3,0.2,0.3,0.2,0.3,0.2,0.3,0.1,0.1,0.1,0.1,0.4,0.2,0.2,0.3,0.3,0.3,0.5,0.2,0.1,0.0,0.1,0.1,0.0,0.2,0.3,0.1,0.1,0.0
0.6,0.2,0.2,0.2,0.1,0.2,0.1,0.1,0.2,0.4,0.1,0.3,0.2,0.1,0.0,0.2,0.0,0.3,0.3,0.5,0.5,0.1,0.3,0.2,0.2,0.0,0.2,0.1,0.1,0.1,0.4,0.1,0.3,0.1,0.1,0.2,0.1,0.2,0.3,0.7,0.1,0.0,0.0,0.1,0.4,0.1,0.4,0.0,0.2,0.4,0.2,0.3,0.1,0.2,0.0,0.4,0.4,0.2,0.0,0.2,0.0,0.1,0.2,0.2,0.1,0.0,0.1,0.1,0.1,0.3,0.0,0.6,0.1,0.3,0.2,0.2,0.0,0.2,0.2,0.1,0.1,0.1,0.5,0.1,0.3,0.6,0.1,0.3,0.2,0.3,0.2,0.4,0.4,0.1,0.1,0.1,0.5,0.1,0.2,0.1
0.2,0.3,0.2,0.3,0.0,0.2,0.0,0.3,0.1,0.3,0.0,0.4,0.0,0.2,0.3,0.2,0.4,0.3,0.2,0.3,0.0,0.0,0.2,0.0,0.3,0.1,0.1,0.3,0.1,0.2,0.3,0.3,0.4,0.1,0.1,0.2,0.2,0.1,0.1,0.2,0.0,0.1,0.2,0.4,0.5,0.2,0.1,0.3,0.1,0.3,0.6,0.2,0.1,0.1,0.0,0.3,0.2,0.2,0.3,0.2,0.3,0.5,0.2,0.3,0.2,0.2,0.4,0.1,0.5,0.2,0.3,0.1,0.3,0.2,0.0,0.2,0.1,0.2,0.3,0.2,0.3,0.4,0.2,0.0,0.1,0.0,0.2,0.3,0.1,0.5,0.2,0.2,0.2,0.2,0.2,0.0,0.2,0.1,0.2,0.2
0.0,0.1,0.2,0.3,0.1,0.1,0.3,0.4,0.1,0.1,0.2,0.6,0.1,0.1,0.0,0.3,0.1,0.1,0.1,0.0,0.2,0.2,0.2,0.4,0.2,0.0,0.3,0.3,0.4,0.0,0.2,0.0,0.3,0.1,0.3,0.0,0.1,0.1,0.5,0.2,0.0,0.1,0.3,0.3,0.1,0.1,0.3,0.2,0.5,0.0,0.3,0.5,0.2,0.2,0.3,0.5,0.0,0.1,0.1,0.1,0.0,0.2,0.0,0.3,0.3,0.2,0.0,0.0,0.2,0.3,0.3,0.1,0.0,0.2,0.3,0.5,0.1,0.5,0.0,0.2,0.3,0.2,0.5,0.3,0.1,0.3,0.2,0.0,0.2,0.1,0.0,0.2,0.2,0.4,0.4,0.0,0.3,0.2,0.1,0.2
0.1,0.1,0.3,0.0,0.8,0.0,0.3,0.3,0.2,0.4,0.3,0.4,0.0,0.4,0.0,0.2,0.1,0.0,0.0,0.1,0.1,0.1,0.4,0.1,0.3,0.3,0.3,0.1,0.2,0.1,0.3,0.3,0.3,0.0,0.5,0.1,0.3,0.2,0.3,0.3,0.3,0.0,0.4,0.2,0.0,0.0,0.4,0.1,0.2,0.2,0.2,0.3,0.2,0.1,0.4,0.1,0.1,0.3,0.0,0.2,0.4,0.1,0.0,0.1,0.2,0.1,0.2,0.3,0.0,0.1,0.1,0.1,0.2,0.1,0.1,0.0,0.3,0.2,0.2,0.3,0.2,0.2,0.3,0.2,0.1,0.1,0.0,0.1,0.5,0.1,0.2,0.3,0.3,0.2,0.3,0.1,0.1,0.0,0.3,0.2
0.3,0.6,0.1,0.3,0.1,0.3,0.2,0.1,0.2,0.3,0.1,0.1,0.0,0.1,0.2,0.3,0.4,0.5,0.3,0.0,0.5,0.1,0.3,0.1,0.2,0.3,0.2,0.3,0.0,0.6,0.2,0.2,0.2,0.3,0.1,0.3,0.2,0.3,0.2,0.2,0.3,0.2,0.1,0.1,0.4,0.3,0.4,0.0,0.1,0.3,0.3,0.1,0.1,0.1,0.4,0.1,0.3,0.2,0.0,0.2,0.0,0.3,0.1,0.0,0.2,0.0,0.1,0.2,0.0,0.1,0.5,0.2,0.2,0.3,0.2,0.1,0.2,0.1,0.2,0.1,0.2,0.1,0.3,0.1,0.2,0.4,0.0,0.3,0.1,0.1,0.1,0.4,0.1,0.3,0.1,0.5,0.0,0.1,0.2,0.3
0.1,0.2,0.3,0.4,0.2,0.0,0.0,0.2,0.1,0.4,0.3,0.0,0.2,0.1,0.2,0.2,0.0,0.1,0.1,0.3,0.1,0.1,0.0,0.1,0.3,0.0,0.0,0.2,0.0,0.3,0.2,0.1,0.1,0.0,0.2,0.4,0.1,0.1,0.0,0.2,0.0,0.0,0.3,0.1,0.2,0.1,0.3,0.2,0.0,0.5,0.3,0.3,0.2,0.2,0.1,0.4,0.1,0.4,0.2,0.0,0.3,0.3,0.3,0.0,0.0,0.3,0.2,0.4,0.2,0.4,0.2,0.3,0.1,0.2,0.2,0.2,0.3,0.2,0.4,0.3,0.1,0.4,0.3,0.1,0.2,0.0,0.0,0.2,0.3,0.1,0.0,0.2,0.4,0.1,0.3,0.1,0.0,0.1,0.0,0.2
0.4,0.0,0.3,0.1,0.1,0.1,0.2,0.3,0.0,0.0,0.0,0.6,0.2,0.1,0.4,0.4,0.2,0.2,0.2,0.3,0.1,0.2,0.3,0.2,0.2,0.2,0.2,0.2,0.1,0.1,0.1,0.1,0.2,0.1,0.0,0.2,0.5,0.0,0.2,0.4,0.0,0.2,0.2,0.1,0.4,0.5,0.2,0.1,0.1,0.2,0.3,0.1,0.4,0.3,0.3,0.2,0.0,0.1,0.2,0.0,0.2,0.0,0.2,0.1,0.0,0.0,0.3,0.4,0.1,0.4,0.2,0.2,0.2,0.2,0.2,0.4,0.3,0.5,0.1,0.2,0.0,0.1,0.2,0.1,0.0,0.2,0.0,0.2,0.1,0.0,0.0,0.2,0.2,0.0,0.3,0.1,0.5,0.3,0.2,0.0
0.2,0.3,0.1,0.3,0.1,0.2,0.4,0.2,0.2,0.3,0.1,0.1,0.2,0.3,0.0,0.2,0.0,0.3,0.2,0.1,0.1,0.1,0.3,0.3,0.1,0.2,0.0,0.6,0.2,0.3,0.4,0.1,0.3,0.3,0.2,0.3,0.1,0.3,0.1,0.5,0.3,0.1,0.3,0.3,0.0,0.6,0.2,0.3,0.1,0.1,0.2,0.2,0.1,0.0,0.3,0.2,0.0,0.1,0.3,0.2,0.2,0.3,0.4,0.6,0.1,0.3,0.1,0.2,0.1,0.3,0.1,0.0,0.2,0.3,0.1,0.3,0.1,0.0,0.2,0.1,0.3,0.2,0.1,0.4,0.3,0.1,0.1,0.4,0.0,0.0,0.3,0.1,0.1,0.1,0.2,0.1,0.0,0.0,0.2,0.3
0.2,0.1,0.3,0.0,0.0,0.1,0.4,0.4,0.0,0.1,0.3,0.3,0.1,0.1,0.2,0.2,0.1,0.1,0.1,0.2,0.4,0.3,0.3,0.1,0.3,0.2,0.2,0.3,0.3,0.4,0.4,0.2,0.0,0.1,0.3,0.5,0.2,0.3,0.2,0.1,0.2,0.6,0.1,0.2,0.1,0.0,0.2,0.2,0.2,0.2,0.1,0.0,0.1,0.0,0.2,0.0,0.1,0.4,0.3,0.3,0.2,0.2,0.2,0.4,0.2,0.0,0.2,0.0,0.2,0.2,0.1,0.0,0.2,0.2,0.3,0.2,0.3,0.0,0.6,0.1,0.2,0.3,0.2,0.1,0.2,0.4,0.2,0.3,0.4,0.2,0.1,0.4,0.0,0.0,0.1,0.2,0.2,0.5,0.3,0.4
